^H:\NEW FOLDER\THESECONDCOMING\SUPERBNINJA\SUPERBNINJA\DEBUG\MAIN.OBJ
/ERRORREPORT:PROMPT /OUT:"H:\New folder\TheSecondComing\SuperbNinja\Debug\SuperbNinja.exe" /NOLOGO alld.lib kernel32.lib user32.lib gdi32.lib winspool.lib comdlg32.lib advapi32.lib shell32.lib ole32.lib oleaut32.lib uuid.lib odbc32.lib odbccp32.lib /MANIFEST /ManifestFile:"Debug\SuperbNinja.exe.intermediate.manifest" /MANIFESTUAC:"level='asInvoker' uiAccess='false'" /DEBUG /PDB:"H:\New folder\TheSecondComing\SuperbNinja\Debug\SuperbNinja.pdb" /TLBID:1 /DYNAMICBASE /NXCOMPAT /IMPLIB:"H:\New folder\TheSecondComing\SuperbNinja\Debug\SuperbNinja.lib" /MACHINE:X86 Debug\main.obj
^F:\NEW FOLDER\THESECONDCOMING\SUPERBNINJA\SUPERBNINJA\DEBUG\CONTROLNINJA.OBJ|F:\NEW FOLDER\THESECONDCOMING\SUPERBNINJA\SUPERBNINJA\DEBUG\DURINGGAMEPLAY.OBJ|F:\NEW FOLDER\THESECONDCOMING\SUPERBNINJA\SUPERBNINJA\DEBUG\MAIN.OBJ
/ERRORREPORT:PROMPT /OUT:"F:\New folder\TheSecondComing\SuperbNinja\Debug\SuperbNinja.exe" /NOLOGO alld.lib kernel32.lib user32.lib gdi32.lib winspool.lib comdlg32.lib advapi32.lib shell32.lib ole32.lib oleaut32.lib uuid.lib odbc32.lib odbccp32.lib /MANIFEST /ManifestFile:"Debug\SuperbNinja.exe.intermediate.manifest" /MANIFESTUAC:"level='asInvoker' uiAccess='false'" /DEBUG /PDB:"F:\New folder\TheSecondComing\SuperbNinja\Debug\SuperbNinja.pdb" /TLBID:1 /DYNAMICBASE /NXCOMPAT /IMPLIB:"F:\New folder\TheSecondComing\SuperbNinja\Debug\SuperbNinja.lib" /MACHINE:X86 Debug\controlNinja.obj
Debug\duringGameplay.obj
Debug\main.obj
^E:\NEW FOLDER\THESECONDCOMING\SUPERBNINJA\SUPERBNINJA\DEBUG\CONTROLNINJA.OBJ|E:\NEW FOLDER\THESECONDCOMING\SUPERBNINJA\SUPERBNINJA\DEBUG\DURINGGAMEPLAY.OBJ|E:\NEW FOLDER\THESECONDCOMING\SUPERBNINJA\SUPERBNINJA\DEBUG\ENEMYDOGS.OBJ|E:\NEW FOLDER\THESECONDCOMING\SUPERBNINJA\SUPERBNINJA\DEBUG\MAIN.OBJ
/ERRORREPORT:PROMPT /OUT:"E:\New folder\TheSecondComing\SuperbNinja\Debug\SuperbNinja.exe" /NOLOGO alld.lib kernel32.lib user32.lib gdi32.lib winspool.lib comdlg32.lib advapi32.lib shell32.lib ole32.lib oleaut32.lib uuid.lib odbc32.lib odbccp32.lib /MANIFEST /ManifestFile:"Debug\SuperbNinja.exe.intermediate.manifest" /MANIFESTUAC:"level='asInvoker' uiAccess='false'" /DEBUG /PDB:"E:\New folder\TheSecondComing\SuperbNinja\Debug\SuperbNinja.pdb" /TLBID:1 /DYNAMICBASE /NXCOMPAT /IMPLIB:"E:\New folder\TheSecondComing\SuperbNinja\Debug\SuperbNinja.lib" /MACHINE:X86 Debug\controlNinja.obj
Debug\duringGameplay.obj
Debug\enemyDogs.obj
Debug\main.obj
^H:\NEW FOLDER\THESECONDCOMING\SUPERBNINJA\SUPERBNINJA\DEBUG\CONTROLNINJA.OBJ|H:\NEW FOLDER\THESECONDCOMING\SUPERBNINJA\SUPERBNINJA\DEBUG\ENEMIES.OBJ|H:\NEW FOLDER\THESECONDCOMING\SUPERBNINJA\SUPERBNINJA\DEBUG\MAIN.OBJ|H:\NEW FOLDER\THESECONDCOMING\SUPERBNINJA\SUPERBNINJA\DEBUG\NINJASTARS.OBJ
/ERRORREPORT:PROMPT /OUT:"H:\New folder\TheSecondComing\SuperbNinja\Debug\SuperbNinja.exe" /NOLOGO alld.lib kernel32.lib user32.lib gdi32.lib winspool.lib comdlg32.lib advapi32.lib shell32.lib ole32.lib oleaut32.lib uuid.lib odbc32.lib odbccp32.lib /MANIFEST /ManifestFile:"Debug\SuperbNinja.exe.intermediate.manifest" /MANIFESTUAC:"level='asInvoker' uiAccess='false'" /DEBUG /PDB:"H:\New folder\TheSecondComing\SuperbNinja\Debug\SuperbNinja.pdb" /TLBID:1 /DYNAMICBASE /NXCOMPAT /IMPLIB:"H:\New folder\TheSecondComing\SuperbNinja\Debug\SuperbNinja.lib" /MACHINE:X86 Debug\controlNinja.obj
Debug\enemies.obj
Debug\main.obj
Debug\ninjaStars.obj
^H:\JAMESROBERTSON ALLEGRO\SUPERBNINJA\SUPERBNINJA\DEBUG\CONTROLNINJA.OBJ|H:\JAMESROBERTSON ALLEGRO\SUPERBNINJA\SUPERBNINJA\DEBUG\ENEMIES.OBJ|H:\JAMESROBERTSON ALLEGRO\SUPERBNINJA\SUPERBNINJA\DEBUG\MAIN.OBJ|H:\JAMESROBERTSON ALLEGRO\SUPERBNINJA\SUPERBNINJA\DEBUG\NINJASTARS.OBJ
/ERRORREPORT:PROMPT /OUT:"H:\JamesRobertson Allegro\SuperbNinja\Debug\SuperbNinja.exe" /NOLOGO alld.lib kernel32.lib user32.lib gdi32.lib winspool.lib comdlg32.lib advapi32.lib shell32.lib ole32.lib oleaut32.lib uuid.lib odbc32.lib odbccp32.lib /MANIFEST /ManifestFile:"Debug\SuperbNinja.exe.intermediate.manifest" /MANIFESTUAC:"level='asInvoker' uiAccess='false'" /DEBUG /PDB:"H:\JamesRobertson Allegro\SuperbNinja\Debug\SuperbNinja.pdb" /TLBID:1 /DYNAMICBASE /NXCOMPAT /IMPLIB:"H:\JamesRobertson Allegro\SuperbNinja\Debug\SuperbNinja.lib" /MACHINE:X86 Debug\controlNinja.obj
Debug\enemies.obj
Debug\main.obj
Debug\ninjaStars.obj
^F:\JAMESROBERTSON ALLEGRO\SUPERBNINJA\SUPERBNINJA\DEBUG\CONTROLNINJA.OBJ|F:\JAMESROBERTSON ALLEGRO\SUPERBNINJA\SUPERBNINJA\DEBUG\ENEMIES.OBJ|F:\JAMESROBERTSON ALLEGRO\SUPERBNINJA\SUPERBNINJA\DEBUG\MAIN.OBJ|F:\JAMESROBERTSON ALLEGRO\SUPERBNINJA\SUPERBNINJA\DEBUG\NINJASTARS.OBJ
/ERRORREPORT:PROMPT /OUT:"F:\JamesRobertson Allegro\SuperbNinja\Debug\SuperbNinja.exe" /NOLOGO alld.lib kernel32.lib user32.lib gdi32.lib winspool.lib comdlg32.lib advapi32.lib shell32.lib ole32.lib oleaut32.lib uuid.lib odbc32.lib odbccp32.lib /MANIFEST /ManifestFile:"Debug\SuperbNinja.exe.intermediate.manifest" /MANIFESTUAC:"level='asInvoker' uiAccess='false'" /DEBUG /PDB:"F:\JamesRobertson Allegro\SuperbNinja\Debug\SuperbNinja.pdb" /TLBID:1 /DYNAMICBASE /NXCOMPAT /IMPLIB:"F:\JamesRobertson Allegro\SuperbNinja\Debug\SuperbNinja.lib" /MACHINE:X86 Debug\controlNinja.obj
Debug\enemies.obj
Debug\main.obj
Debug\ninjaStars.obj
