﻿Build started 08/04/2014 11:58:57.
     1>Project "F:\JamesRobertson Allegro\SuperbNinja\SuperbNinja\SuperbNinja.vcxproj" on node 2 (build target(s)).
     1>InitializeBuildStatus:
         Creating "Debug\SuperbNinja.unsuccessfulbuild" because "AlwaysCreate" was specified.
       ClCompile:
         C:\Program Files (x86)\Microsoft Visual Studio 10.0\VC\bin\CL.exe /c /ZI /nologo /W3 /WX- /Od /Oy- /D _MBCS /Gm /EHsc /RTC1 /MDd /GS /fp:precise /Zc:wchar_t /Zc:forScope /Fo"Debug\\" /Fd"Debug\vc100.pdb" /Gd /TP /analyze- /errorReport:prompt main.cpp
         main.cpp
       Link:
         C:\Program Files (x86)\Microsoft Visual Studio 10.0\VC\bin\link.exe /ERRORREPORT:PROMPT /OUT:"F:\JamesRobertson Allegro\SuperbNinja\Debug\SuperbNinja.exe" /NOLOGO alld.lib kernel32.lib user32.lib gdi32.lib winspool.lib comdlg32.lib advapi32.lib shell32.lib ole32.lib oleaut32.lib uuid.lib odbc32.lib odbccp32.lib /MANIFEST /ManifestFile:"Debug\SuperbNinja.exe.intermediate.manifest" /MANIFESTUAC:"level='asInvoker' uiAccess='false'" /DEBUG /PDB:"F:\JamesRobertson Allegro\SuperbNinja\Debug\SuperbNinja.pdb" /TLBID:1 /DYNAMICBASE /NXCOMPAT /IMPLIB:"F:\JamesRobertson Allegro\SuperbNinja\Debug\SuperbNinja.lib" /MACHINE:X86 Debug\controlNinja.obj
         Debug\enemies.obj
         Debug\main.obj
         Debug\ninjaStars.obj
         LINK : F:\JamesRobertson Allegro\SuperbNinja\Debug\SuperbNinja.exe not found or not built by the last incremental link; performing full link
         SuperbNinja.vcxproj -> F:\JamesRobertson Allegro\SuperbNinja\Debug\SuperbNinja.exe
       Manifest:
         C:\Program Files (x86)\Microsoft SDKs\Windows\v7.0A\bin\mt.exe /nologo /verbose /outputresource:"F:\JamesRobertson Allegro\SuperbNinja\Debug\SuperbNinja.exe;#1" /manifest Debug\SuperbNinja.exe.intermediate.manifest
       FinalizeBuildStatus:
         Deleting file "Debug\SuperbNinja.unsuccessfulbuild".
         Touching "Debug\SuperbNinja.lastbuildstate".
     1>Done Building Project "F:\JamesRobertson Allegro\SuperbNinja\SuperbNinja\SuperbNinja.vcxproj" (build target(s)).

Build succeeded.

Time Elapsed 00:00:04.89
